straincode;species;strainname;origin;prospection;medium;date;incubT;YO_AND;YO_MC;YO_CAS;YO_FC;YO_PZ;YO_VOR;YO_IZ;YO_FZ;YO_AB;MNV_AB;MNV_FC;MNV_FZ;MNV_VOR;MNV_PZ;MNV_MC;MNV_AND;MNV_CAS;MNV_IZ;MN_AND;MN_AB;MN_CAS;MN_FZ;MN_FC;MN_IZ;MN_MC;MN_PZ;MN_VOR;YO_AND_SIR;YO_MC_SIR;YO_CAS_SIR;YO_FC_SIR;YO_PZ_SIR;YO_VOR_SIR;YO_IZ_SIR;YO_FZ_SIR;YO_AB_SIR;MNV_AB_SIR;MNV_FC_SIR;MNV_FZ_SIR;MNV_VOR_SIR;MNV_PZ_SIR;MNV_MC_SIR;MNV_AND_SIR;MNV_CAS_SIR;MNV_IZ_SIR;MN_AB_SIR;MN_FC_SIR;MN_FZ_SIR;MN_VOR_SIR;MN_PZ_SIR;MN_MC_SIR;MN_AND_SIR;MN_CAS_SIR;MN_IZ_SIR;YO_AND_TRS;YO_MC_TRS;YO_CAS_TRS;YO_FC_TRS;YO_PZ_TRS;YO_VOR_TRS;YO_IZ_TRS;YO_FZ_TRS;YO_AB_TRS;MNV_AB_TRS;MNV_FC_TRS;MNV_FZ_TRS;MNV_VOR_TRS;MNV_PZ_TRS;MNV_MC_TRS;MNV_AND_TRS;MNV_CAS_TRS;MNV_IZ_TRS;MN_AB_TRS;MN_FC_TRS;MN_FZ_TRS;MN_VOR_TRS;MN_PZ_TRS;MN_MC_TRS;MN_AND_TRS;MN_CAS_TRS;MN_IZ_TRS
ALB0;C.albicans;DSY 2323;Laboratory strain;retro;SAB;02.12.2020;24;0.015;0.03;0.06;0.25;0.25;0.25;0.25;32;0.5;0.25;0.0625;32;0.125;0.031;0.015;0.015;0.125;0.031;0.015;0.25;0.0625;64;0.125;0.0625;0.015;0.0625;0.125;;;;;;;;;;;;;;;;;;;;;;;;;;;;;;;;;;;;;;;;;;;;;;;;;;;;;;
ALB1;C.albicans;DSY2322;Laboratory strain;retro;SAB;28.10.2020;24;0.12;0.03;0.12;1;0.25;0.25;0.25;32;0.25;0.25;0.125;32;0.0625;0.031;0.031;0.031;0.125;0.0625;0.031;0.25;0.0625;32;0.125;0.0625;0.015;0.031;0.125;;;;;;;;;;;;;;;;;;;;;;;;;;;;;;;;;;;;;;;;;;;;;;;;;;;;;;
ALB10;C.albicans;DSY 289;Laboratory strain;retro;SAB;30.10.2020;24;0.03;0.03;0.12;0.12;1;8;16;256;0.5;0.25;0.0625;128;4;0.125;0.031;0.031;0.125;4;0.015;0.125;0.0625;128;0.0625;4;0.015;0.125;4;;;;;;;;;;;;;;;;;;;;;;;;;;;;;;;;;;;;;;;;;;;;;;;;;;;;;;
ALB11;C.albicans;DSY 294;Laboratory strain;retro;SAB;30.10.2020;24;0.12;0.015;0.06;0.06;0.03;0.008;0.06;0.5;1;0.25;0.0625;0.5;0.0078;0.0078;0.015;0.031;0.125;0.031;0.015;0.25;0.125;0.5;0.0625;0.031;0.015;0.0078;0.0078;;;;;;;;;;;;;;;;;;;;;;;;;;;;;;;;;;;;;;;;;;;;;;;;;;;;;;
ALB12;C.albicans;DSY 296;Laboratory strain;retro;SAB;30.10.2020;24;0.06;0.06;0.12;0.12;0.5;2;0.25;128;0.5;0.25;0.0625;64;0.5;0.015;0.031;0.031;0.125;0.031;0.031;0.25;0.0625;64;0.0625;0.031;0.031;0.015;0.5;;;;;;;;;;;;;;;;;;;;;;;;;;;;;;;;;;;;;;;;;;;;;;;;;;;;;;
ALB13;C.albicans;LS01 ;Laboratory strain;retro;SAB;30.10.2020;24;0.12;0.015;0.06;0.12;0.06;0.008;0.06;0.5;1;0.5;0.0625;0.5;0.0078;0.0078;0.031;0.031;0.0625;0.031;0.015;0.25;0.0625;0.5;0.0625;0.031;0.015;0.0078;0.0078;;;;;;;;;;;;;;;;;;;;;;;;;;;;;;;;;;;;;;;;;;;;;;;;;;;;;;
ALB14;C.albicans;LS02;Laboratory strain;retro;SAB;30.10.2020;24;0.25;0.5;2;0.12;0.03;0.008;0.03;0.5;1;0.5;0.0625;0.5;0.0078;0.0078;0.125;0.125;0.5;0.031;0.031;0.25;0.125;1;0.0625;0.031;0.031;0.0078;0.0078;;;;;;;;;;;;;;;;;;;;;;;;;;;;;;;;;;;;;;;;;;;;;;;;;;;;;;
ALB15;C.albicans;BSB(BS02);Laboratory strain;retro;SAB;30.10.2020;24;0.03;0.015;0.015;0.06;1;0.25;0.5;8;1;0.5;0.0625;0.25;0.0078;0.0078;0.25;0.25;0.5;0.031;0.125;0.5;8;64;0.0625;0.031;0.25;0.0078;0.0078;;;;;;;;;;;;;;;;;;;;;;;;;;;;;;;;;;;;;;;;;;;;;;;;;;;;;;
ALB16;C.albicans;BST(BS01);Laboratory strain;retro;SAB;16.02.2021;24;1;2;4;0.06;8;8;16;128;0.25;0.25;0.0625;1;0.0078;0.0078;0.25;0.25;0.5;0.031;0.25;0.25;0.5;0.5;0.0625;0.031;0.25;0.0078;0.0078;;;;;;;;;;;;;;;;;;;;;;;;;;;;;;;;;;;;;;;;;;;;;;;;;;;;;;
ALB17;C.albicans;SG01(13-154);Laboratory strain;retro;SAB;05.11.2020;24;1;0.5;4;0.06;0.015;0.008;0.03;0.25;1;0.25;0.0625;0.5;0.0078;0.0078;0.125;0.25;0.5;0.031;0.0625;0.25;0.25;0.5;0.0625;0.031;0.125;0.0078;0.0078;;;;;;;;;;;;;;;;;;;;;;;;;;;;;;;;;;;;;;;;;;;;;;;;;;;;;;
ALB18;C.albicans;DSY 2285;Laboratory strain;retro;SAB;04.11.2020;24;0.03;0.015;0.015;0.12;0.06;0.06;0.06;8;0.5;0.125;0.0625;8;0.0625;0.015;0.015;0.015;0.0625;0.031;0.015;0.5;0.0625;16;0.125;0.031;0.015;0.031;0.0625;;;;;;;;;;;;;;;;;;;;;;;;;;;;;;;;;;;;;;;;;;;;;;;;;;;;;;
ALB19;C.albicans;DSY 2284;Laboratory strain;retro;SAB;30.10.2020;24;0.06;0.015;0.06;0.12;0.03;0.008;0.06;0.25;1;0.25;0.0625;1;0.0078;0.0078;0.015;0.031;0.0625;0.031;0.015;0.25;0.0625;1;0.0625;0.031;0.015;0.0078;0.0078;;;;;;;;;;;;;;;;;;;;;;;;;;;;;;;;;;;;;;;;;;;;;;;;;;;;;;
ALB2;C.albicans;DSY2321;Laboratory strain;retro;SAB;28.10.2020;24;0.12;0.008;0.06;1;0.03;0.008;0.03;1;0.5;0.25;0.25;1;0.0078;0.0078;0.015;0.031;0.0625;0.031;0.015;0.125;0.0625;1;0.25;0.031;0.015;0.0078;0.0078;;;;;;;;;;;;;;;;;;;;;;;;;;;;;;;;;;;;;;;;;;;;;;;;;;;;;;
ALB20;C.albicans;DSY3534;Laboratory strain;retro;SAB;28.10.2020;24;0.12;0.015;0.06;0.12;0.06;0.015;0.06;0.25;0.5;0.25;0.0625;1;0.0078;0.0078;0.031;0.031;0.0625;0.031;0.015;0.25;0.0625;0.5;0.0625;0.031;0.015;0.0078;0.0078;;;;;;;;;;;;;;;;;;;;;;;;;;;;;;;;;;;;;;;;;;;;;;;;;;;;;;
ALB21;C.albicans;DSY 3548;Laboratory strain;retro;SAB;04.11.2020;24;0.12;0.03;0.06;0.5;0.5;1;0.5;64;1;0.5;0.0625;64;0.0078;0.0078;0.031;0.0625;0.125;0.031;0.031;0.5;2;64;0.25;4;0.031;0.25;0.5;;;;;;;;;;;;;;;;;;;;;;;;;;;;;;;;;;;;;;;;;;;;;;;;;;;;;;
ALB3;C.albicans;DSY731;Laboratory strain;retro;SAB;28.10.2020;24;0.03;0.015;0.015;0.12;0.12;0.015;0.06;0.5;0.25;0.25;0.0625;1;0.0078;0.0078;0.015;0.031;0.0625;0.031;0.015;0.25;0.0625;0.5;0.0625;0.031;0.015;0.0078;0.0078;;;;;;;;;;;;;;;;;;;;;;;;;;;;;;;;;;;;;;;;;;;;;;;;;;;;;;
ALB4;C.albicans;DSY732;Laboratory strain;retro;SAB;28.10.2020;24;0.015;0.015;0.03;0.12;1;0.25;0.25;16;0.5;0.25;0.0625;16;0.125;0.0625;0.015;0.015;0.0625;0.0625;0.015;0.125;0.0625;16;0.0625;0.125;0.015;0.0625;0.125;;;;;;;;;;;;;;;;;;;;;;;;;;;;;;;;;;;;;;;;;;;;;;;;;;;;;;
ALB5;C.albicans;DSY735;Laboratory strain;retro;SAB;28.10.2020;24;0.015;0.03;0.06;0.03;0.5;0.5;0.25;64;0.5;0.25;0.0625;32;0.125;0.031;0.015;0.015;0.0625;0.031;0.015;0.25;0.125;32;0.0625;0.031;0.015;0.031;0.125;;;;;;;;;;;;;;;;;;;;;;;;;;;;;;;;;;;;;;;;;;;;;;;;;;;;;;
ALB6;C.albicans;DSY741;Laboratory strain;retro;SAB;28.10.2020;24;0.06;0.015;0.12;0.12;0.06;0.008;0.12;0.5;1;0.25;0.0625;0.5;0.0078;0.0078;0.015;0.015;0.0625;0.031;0.015;0.25;0.0625;0.5;0.0625;0.031;0.015;0.0078;0.0078;;;;;;;;;;;;;;;;;;;;;;;;;;;;;;;;;;;;;;;;;;;;;;;;;;;;;;
ALB7;C.albicans;DSY 347;Laboratory strain;retro;SAB;30.10.2020;24;0.06;0.008;0.03;0.12;0.03;0.008;0.015;0.25;0.5;0.125;0.0625;1;0.0078;0.0078;0.031;0.031;0.0625;0.031;0.015;0.125;0.0625;1;0.0625;0.031;0.015;0.0078;0.0078;;;;;;;;;;;;;;;;;;;;;;;;;;;;;;;;;;;;;;;;;;;;;;;;;;;;;;
ALB8;C.albicans;DSY 286;Laboratory strain;retro;SAB;30.10.2020;24;0.06;0.015;0.015;0.12;0.03;0.03;0.06;0.5;0.5;0.25;0.0625;0.5;0.0078;0.0078;0.015;0.015;0.0625;0.031;0.015;0.25;0.125;1;0.0625;0.031;0.015;0.0078;0.0078;;;;;;;;;;;;;;;;;;;;;;;;;;;;;;;;;;;;;;;;;;;;;;;;;;;;;;
ALB9;C.albicans;DSY 288;Laboratory strain;retro;SAB;24.11.2020;24;0.03;0.008;0.03;0.12;0.06;0.06;0.03;2;0.5;0.25;0.0625;1;0.0078;0.0078;0.015;0.015;0.0625;0.031;0.015;0.125;0.0625;1;0.0625;0.031;0.015;0.0078;0.0078;;;;;;;;;;;;;;;;;;;;;;;;;;;;;;;;;;;;;;;;;;;;;;;;;;;;;;
AUR1;C.auris;Israel III.1 (10);Laboratory strain;retro;SAB;11.11.2020;24;0.5;0.25;0.5;0.12;0.06;0.12;0.06;8;2;1;0.0625;4;0.0625;0.015;0.0625;0.25;0.25;0.0625;0.015;0.5;0.5;8;0.0625;0.0625;0.0625;0.015;0.0625;;;;;;;;;;;;;;;;;;;;;;;;;;;;;;;;;;;;;;;;;;;;;;;;;;;;;;
AUR2;C.auris;Israel III.8 (6);Laboratory strain;retro;SAB;17.02.2021;24;0.25;0.12;0.25;0.25;0.25;4;4;128;2;0.5;0.0625;128;0.25;0.015;0.125;0.25;4;4;0.125;0.5;4;128;0.0625;0.0625;0.015;0.0078;0.25;;;;;;;;;;;;;;;;;;;;;;;;;;;;;;;;;;;;;;;;;;;;;;;;;;;;;;
AUR3;C.auris;LMDM-1218 (16);Laboratory strain;retro;SAB;11.11.2020;24;0.12;0.12;0.06;0.12;0.25;0.5;0.25;64;2;1;0.0625;32;0.125;0.031;0.031;0.0625;0.125;0.0625;0.015;1;0.125;64;0.0625;0.25;0.015;0.031;0.25;;;;;;;;;;;;;;;;;;;;;;;;;;;;;;;;;;;;;;;;;;;;;;;;;;;;;;
AUR4;C.auris;LMDM-1219(17);Laboratory strain;retro;SAB;11.11.2020;24;0.25;0.12;0.12;0.25;0.12;0.06;0.03;2;4;1;0.0625;2;0.0078;0.0078;0.031;0.25;0.125;0.031;0.015;1;0.125;2;0.0625;0.031;0.015;0.0078;0.015;;;;;;;;;;;;;;;;;;;;;;;;;;;;;;;;;;;;;;;;;;;;;;;;;;;;;;
AUR5;C.auris;LMDM-1231(18);Laboratory strain;retro;SAB;11.11.2020;24;0.25;0.12;0.12;0.12;0.25;1;0.5;32;2;0.5;0.0625;32;0.125;0.031;0.0625;0.25;0.25;0.125;0.031;0.5;0.25;64;0.0625;0.125;0.031;0.031;0.125;;;;;;;;;;;;;;;;;;;;;;;;;;;;;;;;;;;;;;;;;;;;;;;;;;;;;;
CER;S.cerevisae;1014264884;clinical isolate;retro;SAB;11.11.2020;24;0.03;0.12;0.25;8;0.25;0.5;0.25;64;1;1;2;32;0.0625;0.031;0.031;0.25;0.25;0.031;0.015;1;0.25;32;2;0.0625;0.015;0.0625;0.125;;;;;;;;;;;;;;;;;;;;;;;;;;;;;;;;;;;;;;;;;;;;;;;;;;;;;;
CLA;Sap.clavata;1011508943;clinical isolate;retro;SAB;25.11.2020;24;1;0.5;8;0.12;0.25;0.015;0.03;4;1;0.5;0.0625;2;0.0078;0.0078;0.125;1;8;0.031;0.5;0.5;8;4;0.0625;0.031;0.0625;0.031;0.031;;;;;;;;;;;;;;;;;;;;;;;;;;;;;;;;;;;;;;;;;;;;;;;;;;;;;;
DENEO;Cry.deneoformance;1014882330;clinical isolate;retro;SAB;24.11.2020;48;8;8;8;4;0.12;0.12;0.06;8;0.5;0.25;1;4;0.015;0.0078;8;8;2;0.031;8;0.25;2;4;1;0.031;8;0.015;0.031;;;;;;;;;;;;;;;;;;;;;;;;;;;;;;;;;;;;;;;;;;;;;;;;;;;;;;
DUB1;C.dubliniensis;1015072877;clinical isolate;retro;SAB;10.11.2020;24;0.06;0.015;0.06;0.06;0.008;0.008;0.015;0.12;0.25;0.25;0.0625;0.25;0.0078;0.0078;0.015;0.0625;0.0125;0.031;0.015;0.125;0.0625;0.25;0.0625;0.031;0.015;0.0078;0.0078;;;;;;;;;;;;;;;;;;;;;;;;;;;;;;;;;;;;;;;;;;;;;;;;;;;;;;
DUB2;C.dubliniensis;8620914792;clinical isolate;retro;SAB;19.11.2020;24;0.12;0.03;0.12;0.06;0.008;0.008;0.015;0.12;0.5;0.25;0.0625;0.25;0.0078;0.0078;0.031;0.0625;0.0625;0.031;0.015;0.25;0.0625;0.25;0.0625;0.031;0.015;0.0078;0.0078;;;;;;;;;;;;;;;;;;;;;;;;;;;;;;;;;;;;;;;;;;;;;;;;;;;;;;
DUB3;C.dubliniensis;8600931887;clinical isolate;retro;SAB;24.11.2020;24;0.12;0.015;0.06;0.06;0.008;0.008;0.015;0.12;0.5;0.25;0.0625;0.25;0.0078;0.0078;0.031;0.125;0.125;0.031;0.015;0.25;0.0625;0.25;0.0625;0.031;0.015;0.0078;0.0078;;;;;;;;;;;;;;;;;;;;;;;;;;;;;;;;;;;;;;;;;;;;;;;;;;;;;;
DUB4;C.dubliniensis;1015113778;clinical isolate;retro;SAB;25.11.2020;24;0.12;0.03;0.12;0.06;0.008;0.008;0.015;0.12;0.25;0.25;0.0625;0.25;0.0078;0.0078;0.031;0.125;0.125;0.031;0.015;0.25;0.125;0.25;0.0625;0.031;0.015;0.0078;0.0078;;;;;;;;;;;;;;;;;;;;;;;;;;;;;;;;;;;;;;;;;;;;;;;;;;;;;;
DUB5;C.dubliniensis;1015087277;clinical isolate;retro;SAB;25.11.2020;24;0.12;0.03;0.12;0.06;0.015;0.008;0.015;0.12;0.25;0.25;0.0625;0.25;0.0078;0.0078;0.031;0.125;0.125;0.031;0.015;0.25;0.0625;0.25;0.0625;0.031;0.015;0.0078;0.0078;;;;;;;;;;;;;;;;;;;;;;;;;;;;;;;;;;;;;;;;;;;;;;;;;;;;;;
DUB6;C.dubliniensis;1014779951;clinical isolate;retro;SAB;02.12.2020;24;0.06;0.03;0.06;0.06;0.015;0.008;0.015;0.25;0.5;0.25;0.0625;0.25;0.0078;0.0078;0.015;0.031;0.125;0.031;0.015;0.25;0.0625;0.25;0.0625;0.031;0.015;0.0078;0.0078;;;;;;;;;;;;;;;;;;;;;;;;;;;;;;;;;;;;;;;;;;;;;;;;;;;;;;
FAM;C.famata;1014337441;clinical isolate;retro;SAB;24.11.2020;48;0.25;0.06;0.12;0.5;0.12;0.03;0.06;4;4;1;0.0625;2;0.0078;0.015;0.031;0.031;0.125;0.031;0.031;1;0.125;4;0.0625;0.031;0.015;0.031;0.015;;;;;;;;;;;;;;;;;;;;;;;;;;;;;;;;;;;;;;;;;;;;;;;;;;;;;;
GLA1;C.glabrata;GE01;Laboratory strain;retro;SAB;03.11.2020;24;2;2;8;0.06;0.5;0.12;0.25;4;0.25;0.25;0.0625;4;0.031;0.0625;0.25;0.5;4;0.0625;0.25;0.25;4;4;0.0625;0.0625;0.25;0.125;0.031;;;;;;;;;;;;;;;;;;;;;;;;;;;;;;;;;;;;;;;;;;;;;;;;;;;;;;
GLA10;C.glabrata;DSY 738;Laboratory strain;retro;SAB;04.11.2020;24;0.015;0.015;0.015;0.06;0.5;0.12;0.5;4;1;0.5;0.0625;8;0.0625;0.125;0.015;0.031;0.0625;1;0.015;0.5;0.0625;8;0.125;1;0.015;0.125;0.0625;;;;;;;;;;;;;;;;;;;;;;;;;;;;;;;;;;;;;;;;;;;;;;;;;;;;;;
GLA11;C.glabrata;DSY 739;Laboratory strain;retro;SAB;04.11.2020;24;0.03;0.03;0.015;0.06;2;1;1;64;0.5;0.5;0.0625;32;0.5;0.5;0.015;0.031;0.0625;4;0.015;0.5;0.125;64;0.25;4;0.015;0.5;0.5;;;;;;;;;;;;;;;;;;;;;;;;;;;;;;;;;;;;;;;;;;;;;;;;;;;;;;
GLA12;C.glabrata;DSY 2234;Laboratory strain;retro;SAB;11.02.2021;24;0.12;0.015;0.06;0.06;2;2;1;64;1;0.5;0.0625;32;0.25;0.5;0.015;0.25;0.0625;4;0.015;0.5;0.125;32;0.125;4;0.015;0.5;0.25;;;;;;;;;;;;;;;;;;;;;;;;;;;;;;;;;;;;;;;;;;;;;;;;;;;;;;
GLA13;C.glabrata;DSY 2235;Laboratory strain;retro;SAB;04.11.2020;24;0.06;0.015;0.03;0.06;0.25;0.12;0.12;4;1;0.5;0.0625;4;0.031;0.125;0.015;0.031;0.0625;0.0625;0.015;0.5;0.125;4;0.125;0.0625;0.015;0.0625;0.0625;;;;;;;;;;;;;;;;;;;;;;;;;;;;;;;;;;;;;;;;;;;;;;;;;;;;;;
GLA14;C.glabrata;DSY 2253;Laboratory strain;retro;SAB;04.11.2020;24;0.12;0.015;0.03;0.06;0.25;0.12;0.12;4;0.5;0.5;0.0625;2;0.031;0.125;0.015;0.031;0.125;0.0625;0.015;0.5;0.125;4;0.125;0.0625;0.015;0.125;0.031;;;;;;;;;;;;;;;;;;;;;;;;;;;;;;;;;;;;;;;;;;;;;;;;;;;;;;
GLA15;C.glabrata;DSY 2254;Laboratory strain;retro;SAB;17.11.2020;24;0.03;0.015;0.06;0.06;8;2;2;128;0.5;0.25;0.0625;128;1;1;0.015;0.031;0.125;4;0.031;0.5;0.125;128;0.125;4;0.015;2;1;;;;;;;;;;;;;;;;;;;;;;;;;;;;;;;;;;;;;;;;;;;;;;;;;;;;;;
GLA16;C.glabrata;DSY 562;Laboratory strain;retro;SAB;05.11.2020;24;0.03;0.015;0.015;0.06;1;0.25;0.5;8;1;0.5;0.0625;8;0.125;0.25;0.015;0.015;0.0625;0.25;0.015;0.5;0.125;8;0.0625;4;0.015;0.25;0.125;;;;;;;;;;;;;;;;;;;;;;;;;;;;;;;;;;;;;;;;;;;;;;;;;;;;;;
GLA17;C.glabrata;DSY 565;Laboratory strain;retro;SAB;11.02.2021;24;0.03;0.015;0.06;0.06;8;4;16;128;0.5;0.5;0.0625;64;0.5;2;0.015;0.25;0.0625;4;0.031;0.5;0.0625;64;0.125;4;0.015;2;0.5;;;;;;;;;;;;;;;;;;;;;;;;;;;;;;;;;;;;;;;;;;;;;;;;;;;;;;
GLA18;C.glabrata;BS03;Laboratory strain;retro;SAB;17.02.2021;24;0.5;1;0.5;2;8;8;0.06;1;2;0.125;0.0625;32;0.0625;0.5;0.5;1;8;4;0.5;0.25;8;128;0.0625;1;0.031;0.25;0.0625;;;;;;;;;;;;;;;;;;;;;;;;;;;;;;;;;;;;;;;;;;;;;;;;;;;;;;
GLA2;C.glabrata;LU02;Laboratory strain;retro;SAB;16.02.2021;24;2;4;8;0.06;0.5;0.25;0.25;4;0.5;0.5;0.0625;4;0.031;0.25;0.5;0.5;4;1;0.5;0.5;4;4;0.125;2;0.5;0.25;0.031;;;;;;;;;;;;;;;;;;;;;;;;;;;;;;;;;;;;;;;;;;;;;;;;;;;;;;
GLA3;C.glabrata;LU04;Laboratory strain;retro;SAB;03.11.2020;24;0.03;0.015;0.03;0.06;1;0.25;0.5;8;1;0.5;0.0625;8;0.125;0.25;0.015;0.031;0.125;2;0.015;0.5;0.125;8;0.125;4;0.015;0.25;0.125;;;;;;;;;;;;;;;;;;;;;;;;;;;;;;;;;;;;;;;;;;;;;;;;;;;;;;
GLA4;C.glabrata;LS03;Laboratory strain;retro;SAB;03.11.2020;24;2;1;4;0.06;0.5;0.25;0.5;4;1;0.5;0.0625;0.5;0.0625;0.125;0.25;1;4;0.125;0.5;0.5;2;4;0.125;0.25;0.0625;0.125;0.0625;;;;;;;;;;;;;;;;;;;;;;;;;;;;;;;;;;;;;;;;;;;;;;;;;;;;;;
GLA5;C.glabrata;LS04;Laboratory strain;retro;SAB;03.11.2020;24;0.06;0.03;0.25;0.06;0.5;0.12;0.5;4;1;0.5;0.0625;4;0.031;0.125;0.015;0.031;0.5;0.0625;0.015;0.5;0.125;4;0.125;0.031;0.015;0.125;0.031;;;;;;;;;;;;;;;;;;;;;;;;;;;;;;;;;;;;;;;;;;;;;;;;;;;;;;
GLA6;C.glabrata;LS05;Laboratory strain;retro;SAB;03.11.2020;24;0.03;0.015;0.03;0.06;0.25;0.12;0.25;4;1;0.5;0.0625;8;0.125;0.25;0.002;0.031;0.0625;0.125;0.015;0.5;0.125;8;0.125;4;0.015;0.25;0.125;;;;;;;;;;;;;;;;;;;;;;;;;;;;;;;;;;;;;;;;;;;;;;;;;;;;;;
GLA7;C.glabrata;LS06;Laboratory strain;retro;SAB;03.11.2020;24;2;4;8;0.06;0.5;0.12;0.25;2;1;0.5;0.0625;8;0.125;0.25;0.25;1;1;0.125;0.5;0.5;1;8;0.125;4;0.25;0.25;0.0625;;;;;;;;;;;;;;;;;;;;;;;;;;;;;;;;;;;;;;;;;;;;;;;;;;;;;;
GLA8;C.glabrata;DSY 486;Laboratory strain;retro;SAB;04.11.2020;24;0.03;0.015;0.03;0.06;0.5;0.12;0.5;8;1;0.5;0.0625;16;0.25;0.25;0.002;0.031;0.0625;1;0.015;0.5;0.125;16;0.0625;0.25;0.015;0.25;0.25;;;;;;;;;;;;;;;;;;;;;;;;;;;;;;;;;;;;;;;;;;;;;;;;;;;;;;
GLA9;C.glabrata;DSY 489;Laboratory strain;retro;SAB;04.11.2020;24;0.03;0.015;0.03;0.06;8;2;8;64;1;0.5;0.0625;64;1;1;0.015;0.031;0.0625;4;0.015;0.5;0.125;64;0.125;4;0.015;1;1;;;;;;;;;;;;;;;;;;;;;;;;;;;;;;;;;;;;;;;;;;;;;;;;;;;;;;
GUI1;C.guillermondii;1014799355;clinical isolate;retro;SAB;12.11.2020;24;1;1;0.5;0.06;0.03;0.03;0.03;4;0.5;0.25;0.0625;2;0.0078;0.015;0.125;0.25;0.125;0.031;0.25;0.25;0.25;2;0.0625;0.031;0.125;0.031;0.015;;;;;;;;;;;;;;;;;;;;;;;;;;;;;;;;;;;;;;;;;;;;;;;;;;;;;;
GUI2;C.guillermondii;8600914257;clinical isolate;retro;SAB;19.11.2020;24;1;0.5;0.5;0.06;0.06;0.12;0.12;8;1;0.5;0.0625;8;0.0625;0.0078;0.0625;0.25;0.25;0.031;0.25;0.5;0.25;16;0.0625;0.0625;0.031;0.0078;0.125;;;;;;;;;;;;;;;;;;;;;;;;;;;;;;;;;;;;;;;;;;;;;;;;;;;;;;
GUI3;C.guillermondii;8621290196;clinical isolate;retro;SAB;19.11.2020;24;1;0.5;0.25;0.06;0.06;0.03;0.12;2;0.25;0.25;0.0625;1;0.0078;0.0078;0.125;0.5;0.25;0.031;0.25;0.25;0.125;2;0.0625;0.031;0.0625;0.015;0.015;;;;;;;;;;;;;;;;;;;;;;;;;;;;;;;;;;;;;;;;;;;;;;;;;;;;;;
KEF1;C.kefyr;1014372008;clinical isolate;retro;SAB;11.11.2020;24;0.12;0.06;0.008;4;0.03;0.008;0.06;0.25;1;1;0.5;0.25;0.0078;0.0078;0.015;0.0625;0.125;0.031;0.031;1;0.031;0.25;0.5;0.031;0.015;0.0078;0.0078;;;;;;;;;;;;;;;;;;;;;;;;;;;;;;;;;;;;;;;;;;;;;;;;;;;;;;
KEF2;C.kefyr;1015364194;clinical isolate;retro;SAB;19.11.2020;24;0.12;0.03;0.015;0.06;0.03;0.008;0.03;0.12;1;0.5;0.5;0.25;0.0078;0.0078;0.015;0.125;0.125;0.031;0.125;0.5;0.0625;0.25;0.5;0.031;0.015;0.0078;0.0078;;;;;;;;;;;;;;;;;;;;;;;;;;;;;;;;;;;;;;;;;;;;;;;;;;;;;;
KEF3;C.kefyr;8601420970;clinical isolate;retro;SAB;25.11.2020;24;0.06;0.06;0.03;0.06;0.06;0.008;0.03;0.12;2;1;0.0625;0.25;0.0078;0.0078;0.015;0.031;0.0625;0.031;0.015;1;0.031;0.25;0.0625;0.031;0.015;0.0078;0.0078;;;;;;;;;;;;;;;;;;;;;;;;;;;;;;;;;;;;;;;;;;;;;;;;;;;;;;
KEF4;C.kefyr;1014452380;clinical isolate;retro;SAB;25.11.2020;24;0.06;0.06;0.015;0.06;0.03;0.008;0.015;0.25;2;1;0.0625;0.25;0.0078;0.0078;0.015;0.031;0.0625;0.031;0.031;0.5;0.0625;0.25;0.0625;0.031;0.015;0.0078;0.0078;;;;;;;;;;;;;;;;;;;;;;;;;;;;;;;;;;;;;;;;;;;;;;;;;;;;;;
KRU1;C.krusei;1014264884;clinical isolate;retro;SAB;11.11.2020;24;0.25;0.25;0.5;0.06;0.25;0.03;0.12;2;1;0.25;0.0625;2;0.0078;0.031;0.0625;0.25;0.25;0.0625;0.031;0.5;0.25;2;0.0625;0.0625;0.015;0.0625;0.015;;;;;;;;;;;;;;;;;;;;;;;;;;;;;;;;;;;;;;;;;;;;;;;;;;;;;;
KRU2;C.krusei;1015067200;clinical isolate;retro;SAB;11.11.2020;24;0.06;0.12;0.5;8;0.25;0.25;0.12;32;2;1;2;16;0.031;0.015;0.015;0.25;0.25;0.031;0.015;1;0.25;32;2;0.031;0.015;0.031;0.0625;;;;;;;;;;;;;;;;;;;;;;;;;;;;;;;;;;;;;;;;;;;;;;;;;;;;;;
KRU3;C.krusei;1014962063;clinical isolate;retro;SAB;19.11.2020;24;0.06;0.12;0.5;8;0.12;0.25;0.06;16;2;1;0.5;16;0.0625;0.015;0.0625;0.0625;0.25;0.031;0.015;1;0.25;32;2;0.0625;0.015;0.0625;0.125;;;;;;;;;;;;;;;;;;;;;;;;;;;;;;;;;;;;;;;;;;;;;;;;;;;;;;
KRU4;C.krusei;1014787116;clinical isolate;retro;SAB;19.11.2020;24;0.12;0.12;0.25;8;0.12;0.25;0.12;32;1;1;2;16;0.031;0.0078;0.031;0.25;0.25;0.031;0.015;1;0.25;16;2;0.031;0.015;0.031;0.0625;;;;;;;;;;;;;;;;;;;;;;;;;;;;;;;;;;;;;;;;;;;;;;;;;;;;;;
KRU5;C.krusei;1013675193;clinical isolate;retro;SAB;19.11.2020;J5718;0.12;0.12;0.5;2;0.03;0.12;0.015;16;0.5;0.5;0.25;16;0.031;0.0078;0.015;0.25;0.25;0.031;0.015;0.5;0.25;32;2;0.031;0.015;0.031;0.0625;;;;;;;;;;;;;;;;;;;;;;;;;;;;;;;;;;;;;;;;;;;;;;;;;;;;;;
KRU6;C.krusei;1015302103;clinical isolate;retro;SAB;25.11.2020;24;0.12;0.12;0.25;1;0.03;0.03;0.015;8;1;1;1;8;0.031;0.015;0.015;0.25;0.25;0.031;0.015;1;0.25;16;2;0.0625;0.015;0.031;0.0625;;;;;;;;;;;;;;;;;;;;;;;;;;;;;;;;;;;;;;;;;;;;;;;;;;;;;;
KRU7;C.krusei;1016242422;clinical isolate;retro;SAB;25.11.2020;24;0.12;0.12;0.5;4;0.12;0.12;0.12;32;1;1;0.5;16;0.0625;0.015;0.015;0.125;0.25;0.031;0.015;1;0.25;32;2;0.0625;0.015;0.031;0.0625;;;;;;;;;;;;;;;;;;;;;;;;;;;;;;;;;;;;;;;;;;;;;;;;;;;;;;
KRU8;C.krusei;1016226019;clinical isolate;retro;SAB;25.11.2020;24;0.12;0.12;0.5;4;0.06;0.06;0.06;32;2;1;0.5;16;0.031;0.015;0.015;0.25;0.25;0.031;0.015;1;0.25;32;1;0.031;0.015;0.031;0.0625;;;;;;;;;;;;;;;;;;;;;;;;;;;;;;;;;;;;;;;;;;;;;;;;;;;;;;
LAU;Cry.laurentii;1015251500;clinical isolate;retro;SAB;24.11.2020;48;8;8;8;64;0.25;0.25;0.25;16;0.5;0.25;32;8;0.0625;0.031;8;8;4;0.0625;8;0.25;4;16;32;0.031;8;0.125;0.125;;;;;;;;;;;;;;;;;;;;;;;;;;;;;;;;;;;;;;;;;;;;;;;;;;;;;;
LUS1;C.lusitaniae;DSY 4593;Laboratory strain;retro;SAB;16.02.2021;24;0.25;0.12;0.25;64;0.25;0.5;0.5;32;1;0.5;16;16;0.125;0.031;0.125;0.25;0.25;1;0.25;0.5;0.25;16;16;0.5;0.0625;0.031;0.0625;;;;;;;;;;;;;;;;;;;;;;;;;;;;;;;;;;;;;;;;;;;;;;;;;;;;;;
LUS2;C.lusitaniae;DSY 4606;Laboratory strain;retro;SAB;11.02.2021;24;0.12;0.06;0.12;2;0.06;0.008;0.12;0.5;0.5;0.25;1;0.5;0.0078;0.0078;0.031;0.0625;0.25;0.0625;0.125;0.25;0.25;0.25;2;0.031;0.031;0.0078;0.0078;;;;;;;;;;;;;;;;;;;;;;;;;;;;;;;;;;;;;;;;;;;;;;;;;;;;;;
LUS3;C.lusitaniae;DSY 4661;Laboratory strain;retro;SAB;05.11.2020;24;8;8;8;16;0.03;0.03;0.06;2;0.5;0.25;0.5;2;0.015;0.0078;2;2;0.5;0.031;8;0.25;2;4;1;0.031;2;0.0078;0.031;;;;;;;;;;;;;;;;;;;;;;;;;;;;;;;;;;;;;;;;;;;;;;;;;;;;;;
LUS4;C.lusitaniae;DSY 4590;Laboratory strain;retro;SAB;12.11.2020;24;2;8;2;0.12;0.008;0.008;0.015;0.12;1;0.5;0.0625;0.5;0.0078;0.0078;0.5;0.5;0.25;0.031;0.5;0.5;0.5;0.25;0.0625;0.031;0.5;0.0078;0.0078;;;;;;;;;;;;;;;;;;;;;;;;;;;;;;;;;;;;;;;;;;;;;;;;;;;;;;
LUS5;C.lusitaniae;DSY 4662;Laboratory strain;retro;SAB;12.11.2020;24;4;8;8;1;0.008;0.008;0.015;0.25;2;1;0.0625;0.25;0.0078;0.0078;0.5;0.5;0.5;0.031;0.031;1;0.5;2;0.25;0.031;0.5;0.0078;0.0078;;;;;;;;;;;;;;;;;;;;;;;;;;;;;;;;;;;;;;;;;;;;;;;;;;;;;;
LUS6;C.lusitaniae;8600849438;clinical isolate;retro;SAB;12.11.2020;24;0.25;0.06;0.12;0.06;0.03;0.008;0.06;0.5;0.5;0.25;0.0625;0.5;0.0078;0.0078;0.031;0.125;0.125;0.031;0.015;0.5;0.125;0.5;0.0625;0.031;0.015;0.0078;0.0078;;;;;;;;;;;;;;;;;;;;;;;;;;;;;;;;;;;;;;;;;;;;;;;;;;;;;;
LUS7;C.lusitaniae;8600870966;clinical isolate;retro;SAB;19.11.2020;24;0.12;0.06;0.25;0.06;0.008;0.008;0.015;0.25;0.25;0.5;0.0625;0.25;0.0078;0.0078;0.031;0.25;0.25;0.031;0.031;0.5;0.25;0.25;0.0625;0.031;0.015;0.0078;0.0078;;;;;;;;;;;;;;;;;;;;;;;;;;;;;;;;;;;;;;;;;;;;;;;;;;;;;;
LUS8;C.lusitaniae;1015293296;clinical isolate;retro;SAB;25.11.2020;24;0.12;0.06;0.25;0.06;0.015;0.008;0.015;0.5;0.25;0.125;0.0625;0.5;0.0078;0.0078;0.031;0.125;0.25;0.031;0.031;0.125;0.25;0.5;0.0625;0.031;0.015;0.0078;0.0078;;;;;;;;;;;;;;;;;;;;;;;;;;;;;;;;;;;;;;;;;;;;;;;;;;;;;;
MET;C.metapsilosis;1013898929;clinical isolate;retro;SAB;25.11.2020;24;0.25;0.5;0.25;0.06;0.015;0.03;0.015;1;0.5;0.25;0.0625;1;0.0078;0.0078;0.0625;0.5;0.25;0.031;0.031;0.25;0.25;1;0.0625;0.031;0.0625;0.0078;0.0078;;;;;;;;;;;;;;;;;;;;;;;;;;;;;;;;;;;;;;;;;;;;;;;;;;;;;;
NEO;Cry.Neoformance;1015547009;clinical isolate;retro;SAB;25.11.2020;48;8;8;8;4;0.5;0.25;0.12;32;0.5;0.25;0.25;8;0.0625;0.031;8;8;2;0.031;8;0.25;2;16;0.25;0.031;8;0.0625;0.0625;;;;;;;;;;;;;;;;;;;;;;;;;;;;;;;;;;;;;;;;;;;;;;;;;;;;;;
NIV;C.nivariensis;1015086218;clinical isolate;retro;SAB;25.11.2020;24;0.03;0.015;0.06;0.25;0.06;0.015;0.06;0.5;0.5;0.25;0.0625;2;0.0078;0.031;0.002;0.015;0.0625;0.031;0.015;0.5;0.0625;4;0.0625;0.031;0.002;0.031;0.015;;;;;;;;;;;;;;;;;;;;;;;;;;;;;;;;;;;;;;;;;;;;;;;;;;;;;;
ORT1;C.orthopsilosis;1013898462;clinical isolate;retro;SAB;10.11.2020;24;1;0.5;0.5;0.06;0.03;0.008;0.03;0.25;0.5;0.25;0.0625;0.25;0.0078;0.0078;0.125;0.25;0.25;0.031;0.125;0.25;0.125;0.25;0.0625;0.031;0.031;0.0078;0.0078;;;;;;;;;;;;;;;;;;;;;;;;;;;;;;;;;;;;;;;;;;;;;;;;;;;;;;
ORT2;C.orthopsilosis;1013917705;clinical isolate;retro;SAB;11.11.2020;24;0.5;0.5;1;0.12;0.06;0.008;0.015;0.25;0.25;0.25;0.0625;0.25;0.0078;0.0078;0.125;0.5;0.25;0.031;0.125;0.25;0.25;0.25;16;0.031;0.0625;0.0078;0.0078;;;;;;;;;;;;;;;;;;;;;;;;;;;;;;;;;;;;;;;;;;;;;;;;;;;;;;
ORT3;C.orthopsilosis;1016285481;clinical isolate;retro;SAB;19.11.2020;24;0.5;0.5;0.5;0.06;0.03;0.06;0.03;8;0.5;0.25;0.0625;4;0.0625;0.0078;0.0625;0.125;0.25;0.031;0.0625;0.125;0.25;4;0.0625;0.031;0.031;0.0078;0.125;;;;;;;;;;;;;;;;;;;;;;;;;;;;;;;;;;;;;;;;;;;;;;;;;;;;;;
PAP1;C.parapsilosis;1014365888;clinical isolate;retro;SAB;10.11.2020;24;2;2;0.5;0.06;0.015;0.008;0.015;0.25;0.5;0.125;0.0625;0.25;0.0078;0.0078;0.25;0.5;0.25;0.031;0.25;0.25;0.25;0.25;0.0625;0.031;0.125;0.0078;0.0078;;;;;;;;;;;;;;;;;;;;;;;;;;;;;;;;;;;;;;;;;;;;;;;;;;;;;;
PAP2;C.parapsilosis;1015112863;clinical isolate;retro;SAB;10.11.2020;24;2;2;1;0.12;0.015;0.008;0.015;0.5;0.25;0.125;0.0625;0.5;0.0078;0.0078;0.125;0.25;0.25;0.031;0.25;0.25;0.25;0.5;0.0625;0.031;0.125;0.0078;0.0078;;;;;;;;;;;;;;;;;;;;;;;;;;;;;;;;;;;;;;;;;;;;;;;;;;;;;;
PAP3;C.parapsilosis;8600787306;clinical isolate;retro;SAB;10.11.2020;24;2;1;0.25;0.06;0.03;0.015;0.03;0.5;1;0.25;0.0625;0.5;0.0078;0.0078;0.125;0.5;0.25;0.031;0.25;0.5;0.125;1;0.0625;0.031;0.125;0.0078;0.0078;;;;;;;;;;;;;;;;;;;;;;;;;;;;;;;;;;;;;;;;;;;;;;;;;;;;;;
PAP4;C.parapsilosis;1014371308;clinical isolate;retro;SAB;10.11.2020;24;1;1;0.5;0.12;0.03;0.015;0.015;1;0.5;0.25;0.0625;0.5;0.0078;0.0078;0.125;0.25;0.25;0.031;0.25;0.25;0.25;0.5;0.0625;0.031;0.125;0.0078;0.0078;;;;;;;;;;;;;;;;;;;;;;;;;;;;;;;;;;;;;;;;;;;;;;;;;;;;;;
PAP5;C.parapsilosis;1013898363;clinical isolate;retro;SAB;10.11.2020;24;1;1;0.5;0.12;0.03;0.015;0.015;0.5;0.5;0.25;0.0625;0.5;0.0078;0.0078;0.125;0.5;0.25;0.031;0.25;0.25;0.25;0.5;0.0625;0.031;0.125;0.0078;0.0078;;;;;;;;;;;;;;;;;;;;;;;;;;;;;;;;;;;;;;;;;;;;;;;;;;;;;;
PAP6;C.parapsilosis;8600801680;clinical isolate;retro;SAB;11.11.2020;24;1;1;0.5;0.25;0.03;0.008;0.06;0.5;1;0.25;0.0625;0.5;0.0078;0.0078;0.25;0.5;0.25;0.031;0.125;0.25;0.25;0.25;0.0625;0.031;0.125;0.0078;0.0078;;;;;;;;;;;;;;;;;;;;;;;;;;;;;;;;;;;;;;;;;;;;;;;;;;;;;;
PAP7;C.parapsilosis;1015544862;clinical isolate;retro;SAB;19.11.2020;24;1;1;0.25;0.06;0.015;0.008;0.015;0.5;0.5;0.25;0.0625;0.25;0.0078;0.0078;0.125;0.25;0.125;0.031;0.25;0.25;0.125;0.5;0.0625;0.031;0.125;0.0078;0.0078;;;;;;;;;;;;;;;;;;;;;;;;;;;;;;;;;;;;;;;;;;;;;;;;;;;;;;
TRO1;C.tropicalis;8601114656;clinical isolate;retro;SAB;19.11.2020;24;0.12;0.03;0.06;0.06;0.03;0.06;0.015;1;1;0.5;0.0625;1;0.0078;0.0078;0.031;0.25;0.125;0.031;0.015;0.5;0.25;32;2;0.031;0.015;0.031;0.0625;;;;;;;;;;;;;;;;;;;;;;;;;;;;;;;;;;;;;;;;;;;;;;;;;;;;;;
TRO2;C.tropicalis;1015302004;clinical isolate;retro;SAB;23.02.2021;24;0.12;0.015;0.12;0.06;0.25;0.12;0.25;2;0.5;0.5;0.0625;64;2;8;0.031;0.125;0.125;4;0.015;0.5;0.125;1;0.0625;4;0.015;0.031;0.125;;;;;;;;;;;;;;;;;;;;;;;;;;;;;;;;;;;;;;;;;;;;;;;;;;;;;;
TRO3;C.tropicalis;8611162204;clinical isolate;retro;SAB;10.02.2021;24;0.12;0.03;0.12;0.12;0.008;0.008;0.015;0.5;1;0.5;0.0625;0.5;0.0078;0.015;0.0625;0.125;0.125;0.031;0.015;0.5;0.125;128;0.0625;4;0.015;4;4;;;;;;;;;;;;;;;;;;;;;;;;;;;;;;;;;;;;;;;;;;;;;;;;;;;;;;
TRO4;C.tropicalis;1015562743;clinical isolate;retro;SAB;19.11.2020;24;0.12;0.06;0.12;0.06;0.12;0.5;12;16;1;0.5;0.0625;8;0.125;0.031;0.0625;0.25;0.125;0.031;0.015;0.5;0.25;4;0.0625;4;0.031;8;2;;;;;;;;;;;;;;;;;;;;;;;;;;;;;;;;;;;;;;;;;;;;;;;;;;;;;;
TRO5;C.tropicalis;8611112480;clinical isolate;retro;SAB;25.11.2020;24;0.25;0.06;0.25;0.06;0.015;0.03;0.015;1;0.5;0.5;0.0625;1;0.015;0.015;0.0625;0.25;0.125;0.031;0.015;0.5;0.125;64;0.0625;0.031;0.015;0.125;0.015;;;;;;;;;;;;;;;;;;;;;;;;;;;;;;;;;;;;;;;;;;;;;;;;;;;;;;
